Project Work
…
# turn the data into a tibble and apply the column names
census_data <- as_tibble(data)

Warning: The `x` argument of `as_tibble.matrix()` must have unique column names if
`.name_repair` is omitted as of tibble 2.0.0.
ℹ Using compatibility `.name_repair`.

names(census_data) <- col_names

census_data

# A tibble: 44,079 × 5
   SEX   PWGTP MAR   SCHL  division
   <chr> <chr> <chr> <chr> <chr>   
 1 2     6     5     24    3       
 2 2     23    2     24    9       
 3 1     23    3     24    2       
 4 1     80    5     24    8       
 5 1     16    1     24    3       
 6 1     107   3     24    3       
 7 2     10    5     24    5       
 8 1     22    1     24    3       
 9 2     127   5     24    8       
10 2     46    5     24    7       
# ℹ 44,069 more rows
Now, lets write a helper function to take what is returned by GET() and turn it into a nice tibble. This will automate what we did above.

helper_fun <- function(response) {
  parsed <- fromJSON(rawToChar(response$content))
  col_names <- parsed[1, ]
  data <- parsed[-1, ]
  df <- as_tibble(data)
  names(df) <- col_names
  df
}

# test the function to see if it works
helper_fun(url_response)

# A tibble: 44,079 × 5
   SEX   PWGTP MAR   SCHL  division
   <chr> <chr> <chr> <chr> <chr>   
 1 2     6     5     24    3       
 2 2     23    2     24    9       
 3 1     23    3     24    2       
 4 1     80    5     24    8       
 5 1     16    1     24    3       
 6 1     107   3     24    3       
 7 2     10    5     24    5       
 8 1     22    1     24    3       
 9 2     127   5     24    8       
10 2     46    5     24    7       
# ℹ 44,069 more rows

# test it again using a different url
url_response_2 <- GET("https://api.census.gov/data/2022/acs/acs1/pums?get=SEX,PWGTP,MAR&for=state:*&SCHL=24&key=eb86df934ff00b4bbaa27d768425acced8a927e0")
helper_fun(url_response_2)

# A tibble: 44,079 × 5
   SEX   PWGTP MAR   SCHL  state
   <chr> <chr> <chr> <chr> <chr>
 1 2     6     5     24    17   
 2 2     23    2     24    06   
 3 1     23    3     24    42   
 4 1     80    5     24    49   
 5 1     16    1     24    18   
 6 1     107   3     24    18   
 7 2     10    5     24    13   
 8 1     22    1     24    39   
 9 2     127   5     24    32   
10 2     46    5     24    48   
# ℹ 44,069 more rows
…
  for (v in categorical_vars) {
    df[[v]] <- as.factor(df[[v]])
  }
  
  class(df) <- c("census", class(df))
  
  return(df)
}

Lets test our function out. We’ll test it once without the optional geography argument, once with a year outside the accepted range, and once with one of the time interval variables (JWDP and JWAP).

# this should work, leave out the optional geography argument
census_api_fun(year = 2021, numeric_vars = c('AGEP', 'GASP'), categorical_vars = c('SEX', 'FER'))

# A tibble: 104,337 × 6
   PWGTP  AGEP  GASP SEX   FER   state
   <dbl> <dbl> <dbl> <fct> <fct> <chr>
 1    78    21     3 1     0     37   
 2     9    58     3 2     0     37   
 3    32    20     3 2     2     37   
 4     6    40     3 2     2     37   
 5   119    21     3 1     0     37   
 6    65    20     3 1     0     37   
 7    11    41     3 1     0     37   
 8    67    18     3 2     2     37   
 9    19    19     3 1     0     37   
10   100    19     3 1     0     37   
# ℹ 104,327 more rows

# this should not work, year is out of bounds
# I've commented this out to render the document
#census_api_fun(year = 2009, numeric_vars = c('AGEP', 'GASP'), categorical_vars = c('SEX', #'FER'), geography = 'State')

# Lets see how our time intervals do
census_api_fun(year = 2015, numeric_vars = c('AGEP', 'JWDP'), categorical_vars = c('SEX', 'FER'), geography = 'Region')

# A tibble: 3,147,005 × 6
   PWGTP  AGEP  JWDP SEX   FER   region
   <dbl> <dbl> <dbl> <fct> <fct> <chr> 
 1   110    45    44 2     2     2     
 2   130    47    19 1     0     2     
 3   158    16    NA 1     0     2     
 4   112    56    NA 2     0     3     
 5   108    57    41 1     0     3     
 6   156    31    43 1     0     4     
 7   120    28    43 2     2     4     
 8    77    39    67 1     0     3     
 9    68    38    61 2     2     3     
10    71     3    NA 2     0     3     
# ℹ 3,146,995 more rows
…
  return(final_df)
}

Lets test our function out.

census_api_multi_year(
  years = c(2015, 2017, 2021),
  numeric_vars = c("AGEP", "JWDP"),
  categorical_vars = c("SEX", "FER"),
  geography = "State"
)

# A tibble: 303,754 × 7
   PWGTP  AGEP  JWDP SEX   FER   state  year
   <dbl> <dbl> <dbl> <fct> <fct> <chr> <dbl>
 1   156    58    20 2     0     37     2015
 2    19    43    NA 1     0     37     2015
 3   105    77    NA 2     0     37     2015
 4   135    53    47 2     0     37     2015
 5    34    54    NA 2     0     37     2015
 6    85    46    NA 1     0     37     2015
 7   108    51    NA 2     0     37     2015
 8   140    17    NA 2     2     37     2015
 9     7    14    NA 1     0     37     2015
10   113    31    NA 1     0     37     2015
# ℹ 303,744 more rows
…
